…
``` r
university_quota <- osym_data_2017 %>%
    group_by(university_name) %>%
    filter(city=='İSTANBUL') %>%
    summarise(count=n()) %>%
    arrange(desc(count))
```

    ## Warning: package 'bindrcpp' was built under R version 3.4.2

``` r
university_quota
```

    ## # A tibble: 51 x 2
    ##                  university_name count
    ##                            <chr> <int>
    ##  1 ÝSTANBUL GELÝÞÝM ÜNÝVERSÝTESÝ   212
    ##  2             OKAN ÜNÝVERSÝTESÝ   172
    ##  3          BEYKENT ÜNÝVERSÝTESÝ   169
    ##  4         YEDÝTEPE ÜNÝVERSÝTESÝ   165
    ##  5 ÝSTANBUL MEDÝPOL ÜNÝVERSÝTESÝ   155
    ##  6   ÝSTANBUL AYDIN ÜNÝVERSÝTESÝ   154
    ##  7         ÝSTANBUL ÜNÝVERSÝTESÝ   138
    ##  8    ÝSTANBUL AREL ÜNÝVERSÝTESÝ   135
    ##  9   ÝSTANBUL BÝLGÝ ÜNÝVERSÝTESÝ   131
    ## 10          MALTEPE ÜNÝVERSÝTESÝ   123
    ## # ... with 41 more rows
…
