…
``` r
university_quota <- osym_data_2017 %>%
    group_by(university_name) %>%
    filter(city=='İSTANBUL') %>%
    summarise(count=n()) %>%
    arrange(desc(count))
```

    ## Warning: package 'bindrcpp' was built under R version 3.4.2

``` r
university_quota
```

    ## # A tibble: 51 x 2
    ##                  university_name count
    ##                            <chr> <int>
    ##  1 ÝSTANBUL GELÝÞÝM ÜNÝVERSÝTESÝ   212
    ##  2             OKAN ÜNÝVERSÝTESÝ   172
    ##  3          BEYKENT ÜNÝVERSÝTESÝ   169
    ##  4         YEDÝTEPE ÜNÝVERSÝTESÝ   165
    ##  5 ÝSTANBUL MEDÝPOL ÜNÝVERSÝTESÝ   155
    ##  6   ÝSTANBUL AYDIN ÜNÝVERSÝTESÝ   154
    ##  7         ÝSTANBUL ÜNÝVERSÝTESÝ   138
    ##  8    ÝSTANBUL AREL ÜNÝVERSÝTESÝ   135
    ##  9   ÝSTANBUL BÝLGÝ ÜNÝVERSÝTESÝ   131
    ## 10          MALTEPE ÜNÝVERSÝTESÝ   123
    ## # ... with 41 more rows
…
Max scores of Universities in Istanbul
--------------------------------------

``` r
question2 <- osym_data_2017 %>%
  select(university_name, max_score, city) %>%
  filter(city=='İSTANBUL') %>%
  group_by(university_name) %>%
  summarise(max_puan=max(max_score)) %>%
  arrange(desc(max_puan))

question2
```

    ## # A tibble: 51 x 2
    ##                              university_name max_puan
    ##                                        <chr>    <dbl>
    ##  1                          KOÇ ÜNÝVERSÝTESÝ 569.1112
    ##  2                     ÝSTANBUL ÜNÝVERSÝTESÝ 564.0145
    ##  3                     BOÐAZÝÇÝ ÜNÝVERSÝTESÝ 562.5765
    ##  4             ÝSTANBUL MEDÝPOL ÜNÝVERSÝTESÝ 559.4780
    ##  5                  GALATASARAY ÜNÝVERSÝTESÝ 556.0948
    ##  6 ACIBADEM MEHMET ALÝ AYDINLAR ÜNÝVERSÝTESÝ 542.3482
    ##  7                      SABANCI ÜNÝVERSÝTESÝ 538.7725
    ##  8                     YEDÝTEPE ÜNÝVERSÝTESÝ 531.3691
    ##  9                   BAHÇEÞEHÝR ÜNÝVERSÝTESÝ 530.4845
    ## 10               ÝSTANBUL AYDIN ÜNÝVERSÝTESÝ 525.5809
    ## # ... with 41 more rows
…
Number of departments of Universities in Istanbul
-------------------------------------------------

``` r
question3 <- osym_data_2017 %>% 
  select(university_name,general_quota,city) %>% 
  filter(city=='İSTANBUL') %>%
  group_by(university_name) %>% 
  summarise(bolum_sayisi=n(),general_quota=sum(general_quota)) %>% 
  arrange(desc(general_quota))

question3
```

    ## # A tibble: 51 x 3
    ##                  university_name bolum_sayisi general_quota
    ##                            <chr>        <int>         <int>
    ##  1         ÝSTANBUL ÜNÝVERSÝTESÝ          138         17809
    ##  2          MARMARA ÜNÝVERSÝTESÝ           80          6200
    ##  3 ÝSTANBUL MEDÝPOL ÜNÝVERSÝTESÝ          155          4495
    ##  4 ÝSTANBUL GELÝÞÝM ÜNÝVERSÝTESÝ          212          3950
    ##  5          BEYKENT ÜNÝVERSÝTESÝ          169          3811
    ##  6  ÝSTANBUL TEKNÝK ÜNÝVERSÝTESÝ           76          3684
    ##  7    YILDIZ TEKNÝK ÜNÝVERSÝTESÝ           53          3652
    ##  8   ÝSTANBUL AYDIN ÜNÝVERSÝTESÝ          154          3578
    ##  9         YEDÝTEPE ÜNÝVERSÝTESÝ          165          3442
    ## 10       BAHÇEÞEHÝR ÜNÝVERSÝTESÝ          122          2774
    ## # ... with 41 more rows
…
