R_Junkies Group Project
…
top_six_civ_op_fat

## # A tibble: 6 x 2
##                     Operator SumFats
##                       <fctr>   <int>
## 1                   Aeroflot    7156
## 2          American Airlines    1421
## 3 Pan American World Airways    1302
## 4           United Air Lines    1021
## 5                    AVIANCA     941
## 6     Turkish Airlines (THY)     891

top_six_civ_op_crash_oy

## # A tibble: 157 x 3
## # Groups:   Operator [6]
##            Operator   Year SumFatalities
##              <fctr> <fctr>         <int>
##  1       Air France   2009           228
##  2         Aeroflot   2008            88
##  3       Air France   2005             0
##  4         Air Taxi   2004             6
##  5         Air Taxi   2002             4
##  6 United Air Lines   2001           109
##  7         Air Taxi   2001             6
##  8       Air France   2000           109
##  9         Air Taxi   2000             3
## 10       Air France   1998            53
## # ... with 147 more rows

top_six_civ_op_fat_oy

## # A tibble: 151 x 3
## # Groups:   Operator [6]
##                  Operator   Year SumFatalities
##                    <fctr> <fctr>         <int>
##  1               Aeroflot   2008            88
##  2 Turkish Airlines (THY)   2003            75
##  3      American Airlines   2001           416
##  4       United Air Lines   2001           109
##  5      American Airlines   2000             1
##  6      American Airlines   1999            11
##  7 Turkish Airlines (THY)   1999             6
##  8       United Air Lines   1997             1
##  9               Aeroflot   1996             2
## 10      American Airlines   1995           160
## # ... with 141 more rows
…
