Case Study: Welcome to University
…
## [1] "LC_COLLATE=Turkish_Turkey.1254;LC_CTYPE=Turkish_Turkey.1254;LC_MONETARY=Turkish_Turkey.1254;LC_NUMERIC=C;LC_TIME=Turkish_Turkey.1254"

Number of University Departmens

The table below shows the number of university departments in Istanbul.

university_departments <- osym_data_2017 %>%
    group_by(University_Name=university_name) %>%
    filter(city=='STANBUL' & substr(program_id,0,1)=="2") %>%
    summarise(Departments=n()) %>%
    arrange(desc(Departments))

university_departments

## # A tibble: 41 x 2
##                  University_Name Departments
##                            <chr>       <int>
##  1 STANBUL GELM NVERSTES         212
##  2             OKAN NVERSTES         179
##  3          BEYKENT NVERSTES         176
##  4         YEDTEPE NVERSTES         172
##  5   STANBUL AYDIN NVERSTES         161
##  6 STANBUL MEDPOL NVERSTES         155
##  7    STANBUL AREL NVERSTES         141
##  8       BAHEEHR NVERSTES         128
##  9          MALTEPE NVERSTES         123
## 10   STANBUL BLG NVERSTES         115
## # ... with 31 more rows
…
Maximum Scores of Universities in Istanbul

maximum_scores <- osym_data_2017 %>%
  select(University_Name=university_name, max_score, city, program_id) %>%
  filter(city=='STANBUL' & substr(program_id,0,1)=="2") %>%
  group_by(University_Name) %>%
  summarise(Max_Score=max(max_score)) %>%
  arrange(desc(Max_Score))

maximum_scores

## # A tibble: 41 x 2
##                              University_Name Max_Score
##                                        <chr>     <dbl>
##  1                          KO NVERSTES  569.1112
##  2             STANBUL MEDPOL NVERSTES  559.4780
##  3 ACIBADEM MEHMET AL AYDINLAR NVERSTES  542.3482
##  4                      SABANCI NVERSTES  538.7725
##  5                     YEDTEPE NVERSTES  531.3691
##  6                   BAHEEHR NVERSTES  530.4845
##  7                       BRUN NVERSTES  528.6418
##  8               STANBUL AYDIN NVERSTES  525.5809
##  9            STANBUL 29 MAYIS NVERSTES  522.9686
## 10                      ZYEN NVERSTES  522.6578
## # ... with 31 more rows
…
University Department Quotas in Istanbul

department_quota <- osym_data_2017 %>% 
  select(University_Name=university_name,general_quota,city,program_id) %>% 
  filter(city=='STANBUL' & substr(program_id,0,1)=="2") %>%
  group_by(University_Name) %>% 
  summarise(General_Quota=sum(as.integer(general_quota))) %>% 
  arrange(desc(General_Quota))

department_quota

## # A tibble: 41 x 2
##                  University_Name General_Quota
##                            <chr>         <int>
##  1 STANBUL MEDPOL NVERSTES          4495
##  2          BEYKENT NVERSTES          3974
##  3 STANBUL GELM NVERSTES          3950
##  4   STANBUL AYDIN NVERSTES          3625
##  5         YEDTEPE NVERSTES          3569
##  6       BAHEEHR NVERSTES          2843
##  7             OKAN NVERSTES          2506
##  8  STANBUL KLTR NVERSTES          2284
##  9          SKDAR NVERSTES          2150
## 10          MALTEPE NVERSTES          2107
## # ... with 31 more rows
…
Listing Programs in MEF by scores

maximum_scores <- osym_data_2017 %>%
  select(university_name,program_name,max_score) %>%
  filter(university_name=='MEF NVERSTES') %>%
  group_by(program_name) %>%
  summarise(Max_Score=max(max_score)) %>%
  arrange(desc(Max_Score))
  
maximum_scores

## # A tibble: 44 x 2
##                                                         program_name
##                                                                <chr>
##  1                                                Hukuk (Tam Burslu)
##  2                   ngilizce retmenlii (ngilizce) (Tam Burslu)
##  3                                Psikoloji (ngilizce) (Tam Burslu)
##  4                   ngilizce retmenlii (ngilizce) (%75 Burslu)
##  5                  Bilgisayar Mhendislii (ngilizce) (Tam Burslu)
##  6                    Endstri Mhendislii (ngilizce) (Tam Burslu)
##  7                      Makine Mhendislii (ngilizce) (Tam Burslu)
##  8                                 Mimarlk (ngilizce) (Tam Burslu)
##  9      Rehberlik ve Psikolojik Danmanlk (ngilizce) (Tam Burslu)
## 10 Siyaset Bilimi ve Uluslararas likiler (ngilizce) (Tam Burslu)
## # ... with 34 more rows, and 1 more variables: Max_Score <dbl>
…
