Case Study: Welcome to University
…
Number of University Departmens

The table below shows the number of university departments in Istanbul.

university_departments <- osym_data_2017 %>%
    group_by(University_Name=university_name) %>%
    filter(city=='STANBUL') %>%
    summarise(Departments=n()) %>%
    arrange(desc(Departments))

university_departments

## # A tibble: 51 x 2
##                  University_Name Departments
##                            <chr>       <int>
##  1 STANBUL GELM NVERSTES         212
##  2             OKAN NVERSTES         172
##  3          BEYKENT NVERSTES         169
##  4         YEDTEPE NVERSTES         165
##  5 STANBUL MEDPOL NVERSTES         155
##  6   STANBUL AYDIN NVERSTES         154
##  7         STANBUL NVERSTES         138
##  8    STANBUL AREL NVERSTES         135
##  9   STANBUL BLG NVERSTES         131
## 10          MALTEPE NVERSTES         123
## # ... with 41 more rows
…
Maximum Scores of Universities in Istanbul

maximum_scores <- osym_data_2017 %>%
  select(University_Name=university_name, max_score, city) %>%
  filter(city=='STANBUL') %>%
  group_by(University_Name) %>%
  summarise(Max_Score=max(max_score)) %>%
  arrange(desc(Max_Score))

maximum_scores

## # A tibble: 51 x 2
##                              University_Name Max_Score
##                                        <chr>     <dbl>
##  1                          KO NVERSTES  569.1112
##  2                     STANBUL NVERSTES  564.0145
##  3                     BOAZ NVERSTES  562.5765
##  4             STANBUL MEDPOL NVERSTES  559.4780
##  5                  GALATASARAY NVERSTES  556.0948
##  6 ACIBADEM MEHMET AL AYDINLAR NVERSTES  542.3482
##  7                      SABANCI NVERSTES  538.7725
##  8                     YEDTEPE NVERSTES  531.3691
##  9                   BAHEEHR NVERSTES  530.4845
## 10               STANBUL AYDIN NVERSTES  525.5809
## # ... with 41 more rows
…
University Department Quotas in Istanbul

department_quota <- osym_data_2017 %>% 
  select(University_Name=university_name,general_quota,city) %>% 
  filter(city=='STANBUL') %>%
  group_by(University_Name) %>% 
  summarise(General_Quota=sum(general_quota)) %>% 
  arrange(desc(General_Quota))

department_quota

## # A tibble: 51 x 2
##                  University_Name General_Quota
##                            <chr>         <int>
##  1         STANBUL NVERSTES         17809
##  2          MARMARA NVERSTES          6200
##  3 STANBUL MEDPOL NVERSTES          4495
##  4 STANBUL GELM NVERSTES          3950
##  5          BEYKENT NVERSTES          3811
##  6  STANBUL TEKNK NVERSTES          3684
##  7    YILDIZ TEKNK NVERSTES          3652
##  8   STANBUL AYDIN NVERSTES          3578
##  9         YEDTEPE NVERSTES          3442
## 10       BAHEEHR NVERSTES          2774
## # ... with 41 more rows
…
