Case Study: Welcome to University
…
Quota of Universities in Istanbul

This data shows quota of universities in Istanbul

university_quota <- osym_data_2017 %>%
    group_by(university_name) %>%
    filter(city=='STANBUL') %>%
    summarise(count=n()) %>%
    arrange(desc(count))

## Warning: package 'bindrcpp' was built under R version 3.4.2

university_quota

## # A tibble: 51 x 2
##                  university_name count
##                            <chr> <int>
##  1 STANBUL GELM NVERSTES   212
##  2             OKAN NVERSTES   172
##  3          BEYKENT NVERSTES   169
##  4         YEDTEPE NVERSTES   165
##  5 STANBUL MEDPOL NVERSTES   155
##  6   STANBUL AYDIN NVERSTES   154
##  7         STANBUL NVERSTES   138
##  8    STANBUL AREL NVERSTES   135
##  9   STANBUL BLG NVERSTES   131
## 10          MALTEPE NVERSTES   123
## # ... with 41 more rows
…
Max scores of Universities in Istanbul

question2 <- osym_data_2017 %>%
  select(university_name, max_score, city) %>%
  filter(city=='STANBUL') %>%
  group_by(university_name) %>%
  summarise(max_puan=max(max_score)) %>%
  arrange(desc(max_puan))

question2

## # A tibble: 51 x 2
##                              university_name max_puan
##                                        <chr>    <dbl>
##  1                          KO NVERSTES 569.1112
##  2                     STANBUL NVERSTES 564.0145
##  3                     BOAZ NVERSTES 562.5765
##  4             STANBUL MEDPOL NVERSTES 559.4780
##  5                  GALATASARAY NVERSTES 556.0948
##  6 ACIBADEM MEHMET AL AYDINLAR NVERSTES 542.3482
##  7                      SABANCI NVERSTES 538.7725
##  8                     YEDTEPE NVERSTES 531.3691
##  9                   BAHEEHR NVERSTES 530.4845
## 10               STANBUL AYDIN NVERSTES 525.5809
## # ... with 41 more rows
…
Number of departments of Universities in Istanbul

question3 <- osym_data_2017 %>% 
  select(university_name,general_quota,city) %>% 
  filter(city=='STANBUL') %>%
  group_by(university_name) %>% 
  summarise(bolum_sayisi=n(),general_quota=sum(general_quota)) %>% 
  arrange(desc(general_quota))

question3

## # A tibble: 51 x 3
##                  university_name bolum_sayisi general_quota
##                            <chr>        <int>         <int>
##  1         STANBUL NVERSTES          138         17809
##  2          MARMARA NVERSTES           80          6200
##  3 STANBUL MEDPOL NVERSTES          155          4495
##  4 STANBUL GELM NVERSTES          212          3950
##  5          BEYKENT NVERSTES          169          3811
##  6  STANBUL TEKNK NVERSTES           76          3684
##  7    YILDIZ TEKNK NVERSTES           53          3652
##  8   STANBUL AYDIN NVERSTES          154          3578
##  9         YEDTEPE NVERSTES          165          3442
## 10       BAHEEHR NVERSTES          122          2774
## # ... with 41 more rows
…
